{
  "name": "extension-ios-app-delegate",
  "url": "https://bitbucket.org/rnrgames/extension-ios-app-delegate",
  "license": "MIT",
  "tags": ["openfl", "iphone", "appdelegate", "extension", "ios"],
  "description": "Common class to handle app delegate events with many extensions",
  "version": "0.1.0",
  "releasenote": "Initial release",
  "contributors": ["vidueirof"],
  "dependencies": {
    
  }
}